module bitbucket.org/jazzserve/tealeg-xlsx/v3

go 1.14

require (
	github.com/frankban/quicktest v1.5.0
	github.com/google/btree v1.0.0 // indirect
	github.com/google/go-cmp v0.4.0 // indirect
	github.com/peterbourgon/diskv v2.0.1+incompatible
	github.com/pkg/profile v1.5.0
	github.com/rogpeppe/fastuuid v1.2.0
	github.com/shabbyrobe/xmlwriter v0.0.0-20200208144257-9fca06d00ffa
	gopkg.in/check.v1 v1.0.0-20190902080502-41f04d3bba15
)
